FAIL
Test output failed to match any acceptable form.

Acceptable output:
  (priority-condvar) begin
  (priority-condvar) Thread priority 23 starting.
  (priority-condvar) Thread priority 22 starting.
  (priority-condvar) Thread priority 21 starting.
  (priority-condvar) Thread priority 30 starting.
  (priority-condvar) Thread priority 29 starting.
  (priority-condvar) Thread priority 28 starting.
  (priority-condvar) Thread priority 27 starting.
  (priority-condvar) Thread priority 26 starting.
  (priority-condvar) Thread priority 25 starting.
  (priority-condvar) Thread priority 24 starting.
  (priority-condvar) Signaling...
  (priority-condvar) Thread priority 30 woke up.
  (priority-condvar) Signaling...
  (priority-condvar) Thread priority 29 woke up.
  (priority-condvar) Signaling...
  (priority-condvar) Thread priority 28 woke up.
  (priority-condvar) Signaling...
  (priority-condvar) Thread priority 27 woke up.
  (priority-condvar) Signaling...
  (priority-condvar) Thread priority 26 woke up.
  (priority-condvar) Signaling...
  (priority-condvar) Thread priority 25 woke up.
  (priority-condvar) Signaling...
  (priority-condvar) Thread priority 24 woke up.
  (priority-condvar) Signaling...
  (priority-condvar) Thread priority 23 woke up.
  (priority-condvar) Signaling...
  (priority-condvar) Thread priority 22 woke up.
  (priority-condvar) Signaling...
  (priority-condvar) Thread priority 21 woke up.
  (priority-condvar) end
Differences in `diff -u' format:
  (priority-condvar) begin
  (priority-condvar) Thread priority 23 starting.
- (priority-condvar) Thread priority 22 starting.
  (priority-condvar) Thread priority 21 starting.
  (priority-condvar) Thread priority 30 starting.
  (priority-condvar) Thread priority 29 starting.
- (priority-condvar) Thread priority 28 starting.
  (priority-condvar) Thread priority 27 starting.
  (priority-condvar) Thread priority 26 starting.
- (priority-condvar) Thread priority 25 starting.
- (priority-condvar) Thread priority 24 starting.
  (priority-condvar) Signaling...
- (priority-condvar) Thread priority 30 woke up.
  (priority-condvar) Signaling...
- (priority-condvar) Thread priority 29 woke up.
  (priority-condvar) Signaling...
- (priority-condvar) Thread priority 28 woke up.
  (priority-condvar) Signaling...
- (priority-condvar) Thread priority 27 woke up.
  (priority-condvar) Signaling...
- (priority-condvar) Thread priority 26 woke up.
  (priority-condvar) Signaling...
- (priority-condvar) Thread priority 25 woke up.
  (priority-condvar) Signaling...
- (priority-condvar) Thread priority 24 woke up.
  (priority-condvar) Signaling...
- (priority-condvar) Thread priority 23 woke up.
  (priority-condvar) Signaling...
- (priority-condvar) Thread priority 22 woke up.
  (priority-condvar) Signaling...
- (priority-condvar) Thread priority 21 woke up.
  (priority-condvar) end
