Writing command line to /tmp/yz6iHKpFik.dsk...
warning: can't find squish-pty, so terminal input will fail
bochs -q
Kernel command line: -q run priority-donate-nest
Pintos booting with 4,096 kB RAM...
374 pages available in kernel pool.
374 pages available in user pool.
Calibrating timer...  102,400 loops/s.
Boot complete.
Executing 'priority-donate-nest':
(priority-donate-nest) begin
(priority-donate-nest) Low thread should have priority 32.  Actual priority: 31.
(priority-donate-nest) Low thread should have priority 33.  Actual priority: 31.
(priority-donate-nest) Medium thread should have priority 33.  Actual priority: 32.
(priority-donate-nest) Medium thread got the lock.
(priority-donate-nest) Medium thread should just have finished.
(priority-donate-nest) Low thread should have priority 31.  Actual priority: 31.
(priority-donate-nest) end
Execution of 'priority-donate-nest' complete.
Timer: 118 ticks
Thread: 0 idle ticks, 121 kernel ticks, 0 user ticks
Console: 857 characters output
Keyboard: 0 keys pressed
Powering off...
