Copying tests/userprog/create-bound into /tmp/uE6XWnUz6s.dsk...
Writing command line to /tmp/wruaLWHCzU.dsk...
qemu -hda /tmp/wruaLWHCzU.dsk -hdb /tmp/Vmp4mcxYGq.dsk -hdc /tmp/uE6XWnUz6s.dsk -hdd /tmp/3R2sc1Xlbl.dsk -m 4 -net none -nographic -monitor null
Kernel command line: -q -f put create-bound run create-bound
Pintos booting with 4,096 kB RAM...
374 pages available in kernel pool.
373 pages available in user pool.
Calibrating timer...  78,540,800 loops/s.
hd0:0: detected 145 sector (72 kB) disk, model "QEMU HARDDISK", serial "QM00001"
hd0:1: detected 4,032 sector (1 MB) disk, model "QEMU HARDDISK", serial "QM00002"
hd1:0: detected 75 sector (37 kB) disk, model "QEMU HARDDISK", serial "QM00003"
hd1:1: detected 8,064 sector (3 MB) disk, model "QEMU HARDDISK", serial "QM00004"
Formatting file system...done.
Boot complete.
Putting 'create-bound' into the file system...
Executing 'create-bound':
(create-bound) begin
(create-bound) create("quux.dat"): 1
(create-bound) end
create-bound: exit(0)
Execution of 'create-bound' complete.
Timer: 66 ticks
Thread: 0 idle ticks, 64 kernel ticks, 2 user ticks
hd0:0: 0 reads, 0 writes
hd0:1: 81 reads, 162 writes
hd1:0: 75 reads, 0 writes
hd1:1: 0 reads, 0 writes
Console: 962 characters output
Keyboard: 0 keys pressed
Exception: 0 page faults
Powering off...
