Copying tests/userprog/exec-once into /tmp/ytM3GBrSpZ.dsk...
Copying tests/userprog/child-simple into /tmp/ytM3GBrSpZ.dsk...
Writing command line to /tmp/GbwMDhEwqw.dsk...
qemu -hda /tmp/GbwMDhEwqw.dsk -hdb /tmp/SDYfLwwsBB.dsk -hdc /tmp/ytM3GBrSpZ.dsk -hdd /tmp/6FZ0lTQefi.dsk -m 4 -net none -nographic -monitor null
Kernel command line: -q -f put exec-once put child-simple run exec-once
Pintos booting with 4,096 kB RAM...
374 pages available in kernel pool.
373 pages available in user pool.
Calibrating timer...  78,540,800 loops/s.
hd0:0: detected 145 sector (72 kB) disk, model "QEMU HARDDISK", serial "QM00001"
hd0:1: detected 4,032 sector (1 MB) disk, model "QEMU HARDDISK", serial "QM00002"
hd1:0: detected 145 sector (72 kB) disk, model "QEMU HARDDISK", serial "QM00003"
hd1:1: detected 8,064 sector (3 MB) disk, model "QEMU HARDDISK", serial "QM00004"
Formatting file system...done.
Boot complete.
Putting 'exec-once' into the file system...
Putting 'child-simple' into the file system...
Executing 'exec-once':
(exec-once) begin
(child-simple) run
child-simple: exit(81)
(exec-once) end
exec-once: exit(0)
Execution of 'exec-once' complete.
Timer: 75 ticks
Thread: 0 idle ticks, 75 kernel ticks, 1 user ticks
hd0:0: 0 reads, 0 writes
hd0:1: 120 reads, 300 writes
hd1:0: 145 reads, 0 writes
hd1:1: 0 reads, 0 writes
Console: 1010 characters output
Keyboard: 0 keys pressed
Exception: 0 page faults
Powering off...
