Copying tests/userprog/wait-killed into /tmp/GNGGSF7yqB.dsk...
Copying tests/userprog/child-bad into /tmp/GNGGSF7yqB.dsk...
Writing command line to /tmp/5HgSWeJ4ue.dsk...
qemu -hda /tmp/5HgSWeJ4ue.dsk -hdb /tmp/jMwCg2NBLm.dsk -hdc /tmp/GNGGSF7yqB.dsk -hdd /tmp/TyWKGmVWjg.dsk -m 4 -net none -nographic -monitor null
Kernel command line: -q -f put wait-killed put child-bad run wait-killed
Pintos booting with 4,096 kB RAM...
374 pages available in kernel pool.
373 pages available in user pool.
Calibrating timer...  78,540,800 loops/s.
hd0:0: detected 145 sector (72 kB) disk, model "QEMU HARDDISK", serial "QM00001"
hd0:1: detected 4,032 sector (1 MB) disk, model "QEMU HARDDISK", serial "QM00002"
hd1:0: detected 146 sector (73 kB) disk, model "QEMU HARDDISK", serial "QM00003"
hd1:1: detected 8,064 sector (3 MB) disk, model "QEMU HARDDISK", serial "QM00004"
Formatting file system...done.
Boot complete.
Putting 'wait-killed' into the file system...
Putting 'child-bad' into the file system...
Executing 'wait-killed':
(wait-killed) begin
(child-bad) begin
child-bad: exit(-1)
(wait-killed) wait(exec()) = -1
(wait-killed) end
wait-killed: exit(0)
Execution of 'wait-killed' complete.
Timer: 77 ticks
Thread: 0 idle ticks, 75 kernel ticks, 2 user ticks
hd0:0: 0 reads, 0 writes
hd0:1: 116 reads, 302 writes
hd1:0: 146 reads, 0 writes
hd1:1: 0 reads, 0 writes
Console: 1048 characters output
Keyboard: 0 keys pressed
Exception: 0 page faults
Powering off...
