Copying tests/userprog/write-boundary into /tmp/JICsWs7pYX.dsk...
Copying ../../tests/userprog/sample.txt into /tmp/JICsWs7pYX.dsk...
Writing command line to /tmp/6EygAx4h7v.dsk...
qemu -hda /tmp/6EygAx4h7v.dsk -hdb /tmp/yDnbDw9gCu.dsk -hdc /tmp/JICsWs7pYX.dsk -hdd /tmp/3Xj6ZlYyr0.dsk -m 4 -net none -nographic -monitor null
Kernel command line: -q -f put write-boundary put sample.txt run write-boundary
Pintos booting with 4,096 kB RAM...
374 pages available in kernel pool.
373 pages available in user pool.
Calibrating timer...  78,540,800 loops/s.
hd0:0: detected 145 sector (72 kB) disk, model "QEMU HARDDISK", serial "QM00001"
hd0:1: detected 4,032 sector (1 MB) disk, model "QEMU HARDDISK", serial "QM00002"
hd1:0: detected 78 sector (39 kB) disk, model "QEMU HARDDISK", serial "QM00003"
hd1:1: detected 8,064 sector (3 MB) disk, model "QEMU HARDDISK", serial "QM00004"
Formatting file system...done.
Boot complete.
Putting 'write-boundary' into the file system...
Putting 'sample.txt' into the file system...
Executing 'write-boundary':
(write-boundary) begin
(write-boundary) open "sample.txt"
(write-boundary) end
write-boundary: exit(0)
Execution of 'write-boundary' complete.
Timer: 64 ticks
Thread: 0 idle ticks, 63 kernel ticks, 1 user ticks
hd0:0: 0 reads, 0 writes
hd0:1: 98 reads, 167 writes
hd1:0: 78 reads, 0 writes
hd1:1: 0 reads, 0 writes
Console: 1036 characters output
Keyboard: 0 keys pressed
Exception: 0 page faults
Powering off...
