Copying tests/filesys/base/lg-create into /tmp/ikzLW2qTNu.dsk...
Writing command line to /tmp/ySDElUOBcr.dsk...
qemu -hda /tmp/ySDElUOBcr.dsk -hdb /tmp/Pt1zNyeBPX.dsk -hdc /tmp/ikzLW2qTNu.dsk -hdd /tmp/Jn9OTaLvUE.dsk -m 4 -net none -nographic -monitor null
Kernel command line: -q -f put lg-create run lg-create
Pintos booting with 4,096 kB RAM...
374 pages available in kernel pool.
373 pages available in user pool.
Calibrating timer...  78,540,800 loops/s.
hd0:0: detected 145 sector (72 kB) disk, model "QEMU HARDDISK", serial "QM00001"
hd0:1: detected 4,032 sector (1 MB) disk, model "QEMU HARDDISK", serial "QM00002"
hd1:0: detected 76 sector (38 kB) disk, model "QEMU HARDDISK", serial "QM00003"
hd1:1: detected 8,064 sector (3 MB) disk, model "QEMU HARDDISK", serial "QM00004"
Formatting file system...done.
Boot complete.
Putting 'lg-create' into the file system...
Executing 'lg-create':
(lg-create) begin
(lg-create) create "blargle"
(lg-create) open "blargle" for verification
lg-create: exit(-1)
Execution of 'lg-create' complete.
Timer: 77 ticks
Thread: 0 idle ticks, 66 kernel ticks, 11 user ticks
hd0:0: 0 reads, 0 writes
hd0:1: 85 reads, 312 writes
hd1:0: 76 reads, 0 writes
hd1:1: 0 reads, 0 writes
Console: 960 characters output
Keyboard: 0 keys pressed
Exception: 0 page faults
Powering off...
