FAIL
Test output failed to match any acceptable form.

Acceptable output:
  (lg-seq-random) begin
  (lg-seq-random) create "nibble"
  (lg-seq-random) open "nibble"
  (lg-seq-random) writing "nibble"
  (lg-seq-random) close "nibble"
  (lg-seq-random) open "nibble" for verification
  (lg-seq-random) verified contents of "nibble"
  (lg-seq-random) close "nibble"
  (lg-seq-random) end
Differences in `diff -u' format:
  (lg-seq-random) begin
  (lg-seq-random) create "nibble"
  (lg-seq-random) open "nibble"
  (lg-seq-random) writing "nibble"
  (lg-seq-random) close "nibble"
  (lg-seq-random) open "nibble" for verification
- (lg-seq-random) verified contents of "nibble"
- (lg-seq-random) close "nibble"
- (lg-seq-random) end

(Process exit codes are excluded for matching purposes.)
