FAIL
Kernel panic in run: PANIC at ../../userprog/exception.c:102 in kill(): Kernel bug - unexpected interrupt in kernel
Call stack: 0xc0107306 0xc010ac7b 0xc01017d5 0xc01019ab 0xc0124fb2 0xc0108c38 0xc010d4b0 0xc010b408 0xc010b123 0xc01017d5 0xc01019ab 0x804a691 0x804817a 0x80488dc
Translation of call stack:
In kernel.o:
0xc0107306: debug_panic (.../../lib/kernel/debug.c:34)
0xc010ac7b: kill (.../userprog/exception.c:107)
0xc01017d5: intr_handler (..../threads/interrupt.c:361)
0xc01019ab: intr_entry (threads/intr-stubs.S:38)
0xc0124fb2: (unknown)
0xc0108c38: hash_find (.../../lib/kernel/hash.c:134)
0xc010d4b0: page_lookup (.../build/../../vm/page.c:40)
0xc010b408: read (...../userprog/syscall.c:214)
0xc010b123: syscall_handler (...../userprog/syscall.c:116)
0xc01017d5: intr_handler (..../threads/interrupt.c:361)
0xc01019ab: intr_entry (threads/intr-stubs.S:38)
0x0804a691: (unknown)
In tests/filesys/base/syn-read:
0x0804817a: test_main (...ilesys/base/syn-read.c:26)
0x080488dc: main (...ild/../../tests/main.c:11)
Translations of user virtual addresses above are based on a guess at
the binary to use.  If this guess is incorrect, then those
translations will be misleading.
