Copying tests/filesys/base/syn-read into /tmp/NEl6SlgPIf.dsk...
Copying tests/filesys/base/child-syn-read into /tmp/NEl6SlgPIf.dsk...
Writing command line to /tmp/5dTGJYrZEf.dsk...
qemu -hda /tmp/5dTGJYrZEf.dsk -hdb /tmp/mCsv2FpZ0S.dsk -hdc /tmp/NEl6SlgPIf.dsk -hdd /tmp/vpsz1gat7p.dsk -m 4 -net none -nographic -monitor null
Kernel command line: -q -f put syn-read put child-syn-read run syn-read
Pintos booting with 4,096 kB RAM...
374 pages available in kernel pool.
373 pages available in user pool.
Calibrating timer...  78,540,800 loops/s.
hd0:0: detected 145 sector (72 kB) disk, model "QEMU HARDDISK", serial "QM00001"
hd0:1: detected 4,032 sector (1 MB) disk, model "QEMU HARDDISK", serial "QM00002"
hd1:0: detected 161 sector (80 kB) disk, model "QEMU HARDDISK", serial "QM00003"
hd1:1: detected 8,064 sector (3 MB) disk, model "QEMU HARDDISK", serial "QM00004"
Formatting file system...done.
Boot complete.
Putting 'syn-read' into the file system...
Putting 'child-syn-read' into the file system...
Executing 'syn-read':
(syn-read) begin
(syn-read) create "data"
(syn-read) open "data"
(syn-read) write "data"
(syn-read) close "data"
(syn-read) exec child 1 of 10: "child-syn-read 0"
Interrupt 0x06 (#UD Invalid Opcode Exception) at eip=0xc0124fb2
 cr2=00000000 error=00000000
 eax=c01180bc ebx=c0124fff ecx=c0118000 edx=bffff000
 esi=c0124f40 edi=bfffffb3 esp=c0108f6a ebp=c0124f04
 cs=0008 ds=0010 es=0010 ss=80bc
Kernel PANIC at ../../userprog/exception.c:102 in kill(): Kernel bug - unexpected interrupt in kernel
Call stack: 0xc0107306 0xc010ac7b 0xc01017d5 0xc01019ab 0xc0124fb2 0xc0108c38 0xc010d4b0 0xc010b408 0xc010b123 0xc01017d5 0xc01019ab 0x804a691 0x804817a 0x80488dc.
The `backtrace' program can make call stacks useful.
Read "Backtraces" in the "Debugging Tools" chapter
of the Pintos documentation for more information.
Timer: 79 ticks
Thread: 0 idle ticks, 76 kernel ticks, 3 user ticks
hd0:0: 0 reads, 0 writes
hd0:1: 154 reads, 340 writes
hd1:0: 161 reads, 0 writes
hd1:1: 0 reads, 0 writes
Console: 1695 characters output
Keyboard: 0 keys pressed
Exception: 0 page faults
Powering off...
