Copying tests/filesys/base/syn-write into /tmp/RRxPQVmemh.dsk...
Copying tests/filesys/base/child-syn-wrt into /tmp/RRxPQVmemh.dsk...
Writing command line to /tmp/PsQZl7j54y.dsk...
qemu -hda /tmp/PsQZl7j54y.dsk -hdb /tmp/c6EzNlfYl6.dsk -hdc /tmp/RRxPQVmemh.dsk -hdd /tmp/l8uZlu4L6M.dsk -m 4 -net none -nographic -monitor null
Kernel command line: -q -f put syn-write put child-syn-wrt run syn-write
Pintos booting with 4,096 kB RAM...
374 pages available in kernel pool.
373 pages available in user pool.
Calibrating timer...  78,540,800 loops/s.
hd0:0: detected 145 sector (72 kB) disk, model "QEMU HARDDISK", serial "QM00001"
hd0:1: detected 4,032 sector (1 MB) disk, model "QEMU HARDDISK", serial "QM00002"
hd1:0: detected 160 sector (80 kB) disk, model "QEMU HARDDISK", serial "QM00003"
hd1:1: detected 8,064 sector (3 MB) disk, model "QEMU HARDDISK", serial "QM00004"
Formatting file system...done.
Boot complete.
Putting 'syn-write' into the file system...
Putting 'child-syn-wrt' into the file system...
Executing 'syn-write':
(syn-write) begin
(syn-write) create "stuff"
(syn-write) exec child 1 of 10: "child-syn-wrt 0"
child-syn-wrt: exit(0)
(syn-write) exec child 2 of 10: "child-syn-wrt 1"
child-syn-wrt: exit(1)
(syn-write) exec child 3 of 10: "child-syn-wrt 2"
child-syn-wrt: exit(2)
(syn-write) exec child 4 of 10: "child-syn-wrt 3"
child-syn-wrt: exit(3)
(syn-write) exec child 5 of 10: "child-syn-wrt 4"
child-syn-wrt: exit(4)
(syn-write) exec child 6 of 10: "child-syn-wrt 5"
child-syn-wrt: exit(5)
(syn-write) exec child 7 of 10: "child-syn-wrt 6"
child-syn-wrt: exit(6)
(syn-write) exec child 8 of 10: "child-syn-wrt 7"
child-syn-wrt: exit(7)
(syn-write) exec child 9 of 10: "child-syn-wrt 8"
child-syn-wrt: exit(8)
(syn-write) exec child 10 of 10: "child-syn-wrt 9"
child-syn-wrt: exit(9)
(syn-write) wait for child 1 of 10 returned 0 (expected 0)
(syn-write) wait for child 2 of 10 returned 1 (expected 1)
(syn-write) wait for child 3 of 10 returned 2 (expected 2)
(syn-write) wait for child 4 of 10 returned 3 (expected 3)
(syn-write) wait for child 5 of 10 returned 4 (expected 4)
(syn-write) wait for child 6 of 10 returned 5 (expected 5)
(syn-write) wait for child 7 of 10 returned 6 (expected 6)
(syn-write) wait for child 8 of 10 returned 7 (expected 7)
(syn-write) wait for child 9 of 10 returned 8 (expected 8)
(syn-write) wait for child 10 of 10 returned 9 (expected 9)
(syn-write) open "stuff"
(syn-write) read "stuff"
Interrupt 0x06 (#UD Invalid Opcode Exception) at eip=0xc011cfb9
 cr2=00000000 error=00000000
 eax=c011826b ebx=c011cf40 ecx=c0118000 edx=0804c000
 esi=c011cf40 edi=0804c220 esp=c0108f6a ebp=c011cf04
 cs=0008 ds=0010 es=0010 ss=826c
Kernel PANIC at ../../userprog/exception.c:102 in kill(): Kernel bug - unexpected interrupt in kernel
Call stack: 0xc0107306 0xc010ac7b 0xc01017d5 0xc01019ab 0xc011cfb9 0xc0108c38 0xc010d4b0 0xc010b408 0xc010b123 0xc01017d5 0xc01019ab 0x804a2c1 0x8048179 0x80488fb 0x8048928.
The `backtrace' program can make call stacks useful.
Read "Backtraces" in the "Debugging Tools" chapter
of the Pintos documentation for more information.
Timer: 86 ticks
Thread: 0 idle ticks, 77 kernel ticks, 9 user ticks
hd0:0: 0 reads, 0 writes
hd0:1: 486 reads, 354 writes
hd1:0: 160 reads, 0 writes
hd1:1: 0 reads, 0 writes
Console: 2961 characters output
Keyboard: 0 keys pressed
Exception: 0 page faults
Powering off...
