Copying tests/vm/page-merge-stk into /tmp/82JgxwKdti.dsk...
Copying tests/vm/child-qsort into /tmp/82JgxwKdti.dsk...
Writing command line to /tmp/DDUQFqPvtc.dsk...
qemu -hda /tmp/DDUQFqPvtc.dsk -hdb /tmp/YyRtDHh6zs.dsk -hdc /tmp/82JgxwKdti.dsk -hdd /tmp/0aIVA0zirs.dsk -m 4 -net none -nographic -monitor null
Kernel command line: -q -f put page-merge-stk put child-qsort run page-merge-stk
Pintos booting with 4,096 kB RAM...
374 pages available in kernel pool.
373 pages available in user pool.
Calibrating timer...  78,540,800 loops/s.
hd0:0: detected 145 sector (72 kB) disk, model "QEMU HARDDISK", serial "QM00001"
hd0:1: detected 4,032 sector (1 MB) disk, model "QEMU HARDDISK", serial "QM00002"
hd1:0: detected 160 sector (80 kB) disk, model "QEMU HARDDISK", serial "QM00003"
hd1:1: detected 8,064 sector (3 MB) disk, model "QEMU HARDDISK", serial "QM00004"
Formatting file system...done.
Boot complete.
Putting 'page-merge-stk' into the file system...
Putting 'child-qsort' into the file system...
Executing 'page-merge-stk':
(page-merge-stk) begin
page-merge-stk: exit(-1)
Execution of 'page-merge-stk' complete.
Timer: 175 ticks
Thread: 0 idle ticks, 78 kernel ticks, 97 user ticks
hd0:0: 0 reads, 0 writes
hd0:1: 88 reads, 330 writes
hd1:0: 160 reads, 0 writes
hd1:1: 40 reads, 1200 writes
Console: 991 characters output
Keyboard: 0 keys pressed
Exception: 0 page faults
Powering off...
