Copying tests/vm/page-parallel into /tmp/RdoWAEhfRA.dsk...
Copying tests/vm/child-linear into /tmp/RdoWAEhfRA.dsk...
Writing command line to /tmp/LA3iV2Kq2c.dsk...
qemu -hda /tmp/LA3iV2Kq2c.dsk -hdb /tmp/w9Sn88zThX.dsk -hdc /tmp/RdoWAEhfRA.dsk -hdd /tmp/yQP8F4hA1W.dsk -m 4 -net none -nographic -monitor null
Kernel command line: -q -f put page-parallel put child-linear run page-parallel
Pintos booting with 4,096 kB RAM...
374 pages available in kernel pool.
373 pages available in user pool.
Calibrating timer...  78,540,800 loops/s.
hd0:0: detected 145 sector (72 kB) disk, model "QEMU HARDDISK", serial "QM00001"
hd0:1: detected 4,032 sector (1 MB) disk, model "QEMU HARDDISK", serial "QM00002"
hd1:0: detected 149 sector (74 kB) disk, model "QEMU HARDDISK", serial "QM00003"
hd1:1: detected 8,064 sector (3 MB) disk, model "QEMU HARDDISK", serial "QM00004"
Formatting file system...done.
Boot complete.
Putting 'page-parallel' into the file system...
Putting 'child-linear' into the file system...
Executing 'page-parallel':
(page-parallel) begin
(page-parallel) exec "child-linear"
(page-parallel) exec "child-linear"
Page fault at 0x8048000: not present error reading page in kernel context.
Interrupt 0x0e (#PF Page-Fault Exception) at eip=0xc0104e8c
 cr2=08048000 error=00000000
 eax=c01128ec ebx=c01128ec ecx=00000100 edx=00000170
 esi=08048000 edi=08048000 esp=c0112950 ebp=c0130e00
 cs=0008 ds=0010 es=0010 ss=0e30
Kernel PANIC at ../../userprog/exception.c:102 in kill(): Kernel bug - unexpected interrupt in kernel
Call stack: 0xc0107306 0xc010ac8b 0xc010adf5 0xc01017d5 0xc01019ab 0xc0104e8c 0xc01048dc 0xc010da53 0xc0109c5c 0xc0109a4e 0xc010951e 0xc0100d54.
The `backtrace' program can make call stacks useful.
Read "Backtraces" in the "Debugging Tools" chapter
of the Pintos documentation for more information.
Timer: 89 ticks
Thread: 0 idle ticks, 77 kernel ticks, 12 user ticks
hd0:0: 0 reads, 0 writes
hd0:1: 156 reads, 308 writes
hd1:0: 149 reads, 0 writes
hd1:1: 0 reads, 16 writes
Console: 1696 characters output
Keyboard: 0 keys pressed
Exception: 1 page faults
Powering off...
