Copying tests/vm/pt-big-stk-obj into /tmp/rMlDe4inSx.dsk...
Writing command line to /tmp/v2TbKF2lWM.dsk...
qemu -hda /tmp/v2TbKF2lWM.dsk -hdb /tmp/80QHEuKuqE.dsk -hdc /tmp/rMlDe4inSx.dsk -hdd /tmp/1Vpyb4tJ3P.dsk -m 4 -net none -nographic -monitor null
Kernel command line: -q -f put pt-big-stk-obj run pt-big-stk-obj
Pintos booting with 4,096 kB RAM...
374 pages available in kernel pool.
373 pages available in user pool.
Calibrating timer...  78,540,800 loops/s.
hd0:0: detected 145 sector (72 kB) disk, model "QEMU HARDDISK", serial "QM00001"
hd0:1: detected 4,032 sector (1 MB) disk, model "QEMU HARDDISK", serial "QM00002"
hd1:0: detected 81 sector (40 kB) disk, model "QEMU HARDDISK", serial "QM00003"
hd1:1: detected 8,064 sector (3 MB) disk, model "QEMU HARDDISK", serial "QM00004"
Formatting file system...done.
Boot complete.
Putting 'pt-big-stk-obj' into the file system...
Executing 'pt-big-stk-obj':
(pt-big-stk-obj) begin
pt-big-stk-obj: exit(-1)
Execution of 'pt-big-stk-obj' complete.
Timer: 66 ticks
Thread: 0 idle ticks, 65 kernel ticks, 1 user ticks
hd0:0: 0 reads, 0 writes
hd0:1: 67 reads, 170 writes
hd1:0: 81 reads, 0 writes
hd1:1: 0 reads, 0 writes
Console: 921 characters output
Keyboard: 0 keys pressed
Exception: 0 page faults
Powering off...
