Copying tests/filesys/base/syn-remove into /tmp/505DOHJu5R.dsk...
Writing command line to /tmp/9UVerrDj5O.dsk...
qemu -hda /tmp/9UVerrDj5O.dsk -hdb /tmp/TyGNglXG08.dsk -hdc /tmp/505DOHJu5R.dsk -m 4 -net none -nographic -monitor null
Kernel command line: -q -f put syn-remove run syn-remove
Pintos booting with 4,096 kB RAM...
374 pages available in kernel pool.
374 pages available in user pool.
Calibrating timer...  78,540,800 loops/s.
hd0:0: detected 137 sector (68 kB) disk, model "QEMU HARDDISK", serial "QM00001"
hd0:1: detected 4,032 sector (1 MB) disk, model "QEMU HARDDISK", serial "QM00002"
hd1:0: detected 77 sector (38 kB) disk, model "QEMU HARDDISK", serial "QM00003"
Formatting file system...done.
Boot complete.
Putting 'syn-remove' into the file system...
Executing 'syn-remove':
(syn-remove) begin
(syn-remove) create "deleteme"
(syn-remove) open "deleteme"
(syn-remove) remove "deleteme"
(syn-remove) write "deleteme"
(syn-remove) seek "deleteme" to 0
(syn-remove) read "deleteme"
(syn-remove) close "deleteme"
(syn-remove) end
syn-remove: exit(0)
Execution of 'syn-remove' complete.
Timer: 66 ticks
Thread: 0 idle ticks, 64 kernel ticks, 2 user ticks
hd0:0: 0 reads, 0 writes
hd0:1: 96 reads, 175 writes
hd1:0: 77 reads, 0 writes
Console: 1016 characters output
Keyboard: 0 keys pressed
Exception: 0 page faults
Powering off...
