Copying tests/userprog/close-bad-fd into /tmp/o404JJCko1.dsk...
Writing command line to /tmp/HsRc0TGVF1.dsk...
qemu -hda /tmp/HsRc0TGVF1.dsk -hdb /tmp/GqCqNarUIi.dsk -hdc /tmp/o404JJCko1.dsk -m 4 -net none -nographic -monitor null
Kernel command line: -q -f put close-bad-fd run close-bad-fd
Pintos booting with 4,096 kB RAM...
374 pages available in kernel pool.
374 pages available in user pool.
Calibrating timer...  78,540,800 loops/s.
hd0:0: detected 137 sector (68 kB) disk, model "QEMU HARDDISK", serial "QM00001"
hd0:1: detected 4,032 sector (1 MB) disk, model "QEMU HARDDISK", serial "QM00002"
hd1:0: detected 73 sector (36 kB) disk, model "QEMU HARDDISK", serial "QM00003"
Formatting file system...done.
Boot complete.
Putting 'close-bad-fd' into the file system...
Executing 'close-bad-fd':
(close-bad-fd) begin
close-bad-fd: exit(-1)
Execution of 'close-bad-fd' complete.
Timer: 65 ticks
Thread: 0 idle ticks, 65 kernel ticks, 0 user ticks
hd0:0: 0 reads, 0 writes
hd0:1: 58 reads, 154 writes
hd1:0: 73 reads, 0 writes
Console: 800 characters output
Keyboard: 0 keys pressed
Exception: 0 page faults
Powering off...
