Copying tests/userprog/exec-missing into /tmp/Jv3YEISQnJ.dsk...
Writing command line to /tmp/U4BCkEegFd.dsk...
qemu -hda /tmp/U4BCkEegFd.dsk -hdb /tmp/T6sAtzAA9N.dsk -hdc /tmp/Jv3YEISQnJ.dsk -m 4 -net none -nographic -monitor null
Kernel command line: -q -f put exec-missing run exec-missing
Pintos booting with 4,096 kB RAM...
374 pages available in kernel pool.
374 pages available in user pool.
Calibrating timer...  78,540,800 loops/s.
hd0:0: detected 137 sector (68 kB) disk, model "QEMU HARDDISK", serial "QM00001"
hd0:1: detected 4,032 sector (1 MB) disk, model "QEMU HARDDISK", serial "QM00002"
hd1:0: detected 73 sector (36 kB) disk, model "QEMU HARDDISK", serial "QM00003"
Formatting file system...done.
Boot complete.
Putting 'exec-missing' into the file system...
Executing 'exec-missing':
(exec-missing) begin
load: no-such-file: open failed
no-such-file: exit(-1)
(exec-missing) exec("no-such-file"): -1
(exec-missing) end
exec-missing: exit(0)
Execution of 'exec-missing' complete.
Timer: 64 ticks
Thread: 0 idle ticks, 63 kernel ticks, 1 user ticks
hd0:0: 0 reads, 0 writes
hd0:1: 76 reads, 154 writes
hd1:0: 73 reads, 0 writes
Console: 913 characters output
Keyboard: 0 keys pressed
Exception: 0 page faults
Powering off...
