Copying tests/userprog/rox-child into /tmp/YjbDBO36kG.dsk...
Copying tests/userprog/child-rox into /tmp/YjbDBO36kG.dsk...
Writing command line to /tmp/SPgGGdosNt.dsk...
qemu -hda /tmp/SPgGGdosNt.dsk -hdb /tmp/d8MqUqNrMz.dsk -hdc /tmp/YjbDBO36kG.dsk -m 4 -net none -nographic -monitor null
Kernel command line: -q -f put rox-child put child-rox run rox-child
Pintos booting with 4,096 kB RAM...
374 pages available in kernel pool.
374 pages available in user pool.
Calibrating timer...  78,540,800 loops/s.
hd0:0: detected 137 sector (68 kB) disk, model "QEMU HARDDISK", serial "QM00001"
hd0:1: detected 4,032 sector (1 MB) disk, model "QEMU HARDDISK", serial "QM00002"
hd1:0: detected 156 sector (78 kB) disk, model "QEMU HARDDISK", serial "QM00003"
Formatting file system...done.
Boot complete.
Putting 'rox-child' into the file system...
Putting 'child-rox' into the file system...
Executing 'rox-child':
(rox-child) begin
(rox-child) open "child-rox"
(rox-child) read "child-rox"
(rox-child) write "child-rox"
(rox-child) exec "child-rox 1"
(child-rox) begin
(child-rox) try to write "child-rox"
(child-rox) try to write "child-rox"
(child-rox) end
child-rox: exit(12)
(rox-child) write "child-rox"
(rox-child) end
rox-child: exit(0)
Execution of 'rox-child' complete.
Timer: 77 ticks
Thread: 0 idle ticks, 75 kernel ticks, 2 user ticks
hd0:0: 0 reads, 0 writes
hd0:1: 132 reads, 324 writes
hd1:0: 156 reads, 0 writes
Console: 1132 characters output
Keyboard: 0 keys pressed
Exception: 0 page faults
Powering off...
